Wort,Bedeutung,Anwendung
"Partition, die","Das weiß keiner so genau",
"Messy",,"Als Entschuldigung wenn du schon wieder unverständlich die Folien vollgeschrieben hast"
"Konfus",,"Das ist ja schon wieder total konfus"
"(Eis) Horn","Für extra große Eisportionen",
Gibt es hier frührende Informatiker?,"Hilferuf wenn dein Computer nicht mehr funktioniert, weil du falsch geklickt hast.",
"Die Informatik funktioniert manchmal, Mathematik immer",,
"keine Zeit für Tintenkiller (redw.)",,"Wenn du die Bahn noch erwischen willst, hast du keine Zeit mehr für Tintenkiller!"
"Rennfahrerkausur, die",,
"schwerwiegender Fehler, der",,
